{
	"265": {"status":"You Are A Dick Bldjad","message":"Что-то пошло не так."},
	"400": {"status":"Bad Request","message":"Плохой, негодный реквест."},
	"401": {"status":"Unauthorized","message":"Необходима авторизация."},
	"403": {"status":"Forbidden","message":"Нет доступа."},
	"404": {"status":"Not Found","message":"Искомое не найдено."},
	"407": {"status":"Proxy Authentication Required","message":"Необходима авторизация."},
	"410": {"status":"Gone","message":"Автобус ушёл."},
	"418": {"status":"I'm a teapot","message":"ЙА КРЕВЕДКО"},
	"423": {"status":"Locked","message":"Механизм блокирован."},
	"429": {"status":"Too Many Requests","message":"Ниасилил."},
	"444": {"status":"Go Die","message":"?!+"},
	"500": {"status":"Internal Server Error","message":"Внутреннее противоречие."},
	"501": {"status":"Not Implemented","message":"Сервер этого не умеет."},
	"502": {"status":"Bad Gateway","message":"Семпай, не туда!"},
	"503": {"status":"Service Unavailable","message":"Сервер устал."},
	"504": {"status":"Gateway Timeout","message":"Шлюз решил прилечь."},
	"508": {"status":"Loop Detected","message":"Сансара."},
	"511": {"status":"Network Authentication Needed","message":"Необходима авторизация."},
	"666": {"status":"Inferno","message":"БЕ30ШNБО4НbIМ"}
}