<?xml version="1.0" standalone="no"?>
<!DOCTYPE svg PUBLIC "-//W3C//DTD SVG 1.1//EN" "http://www.w3.org/Graphics/SVG/1.1/DTD/svg11.dtd">
<svg xmlns="http://www.w3.org/2000/svg">
<metadata>Copyright (C) 2018 by original authors @ fontello.com</metadata>
<defs>
<font id="nyanfont" horiz-adv-x="1000" >
<font-face font-family="nyanfont" font-weight="400" font-stretch="normal" units-per-em="1000" ascent="850" descent="-150" />
<missing-glyph horiz-adv-x="1000" />
<glyph glyph-name="spell-cursed" unicode="&#xe800;" d="M286 207q0 20-11 39-1 0-9 12t-14 21-14 25-12 28q-2 9-12 9t-11-9q-4-13-12-28t-14-25-14-21-9-12q-11-19-11-39 0-29 21-50t50-21 51 21 21 50z m285 72q0-119-83-202t-202-84-202 84-84 202q0 81 45 153 4 5 35 51t56 84 56 99 46 113q5 16 19 26t29 9 29-9 18-26q16-52 47-113t55-99 56-84 35-51q45-71 45-153z" horiz-adv-x="571.4" />

<glyph glyph-name="link" unicode="&#xe801;" d="M294 116q14 14 34 14t36-14q32-34 0-70l-42-40q-56-56-132-56-78 0-134 56t-56 132q0 78 56 134l148 148q70 68 144 77t128-43q16-16 16-36t-16-36q-36-32-70 0-50 48-132-34l-148-146q-26-26-26-64t26-62q26-26 63-26t63 26z m450 574q56-56 56-132 0-78-56-134l-158-158q-74-72-150-72-62 0-112 50-14 14-14 34t14 36q14 14 35 14t35-14q50-48 122 24l158 156q28 28 28 64 0 38-28 62-24 26-56 31t-60-21l-50-50q-16-14-36-14t-34 14q-34 34 0 70l50 50q54 54 127 51t129-61z" horiz-adv-x="800" />

<glyph glyph-name="attention-1" unicode="&#xe802;" d="M1113-70q0-39-27-60t-68-20h-923q-40 0-67 21t-28 59q0 30 18 61l461 804q33 55 78 55t76-55l462-805q18-32 18-60z m-487 511v146h-139v-146q0-14 2-26t6-28 5-27l26-162h59l27 162q2 10 6 26t6 29 2 26z m0-387q0 29-20 49t-50 20q-28 0-48-20t-21-49 21-49 48-21q29 0 50 21t20 49z" horiz-adv-x="1113" />

<glyph glyph-name="fav-yes" unicode="&#xe803;" d="M650 779q12 0 24-5 19-8 29-23t11-35v-719q0-19-11-35t-29-23q-10-4-24-4-27 0-47 18l-246 236-246-236q-20-19-46-19-13 0-25 5-18 7-29 23t-11 35v719q0 19 11 35t29 23q12 5 25 5h585z" horiz-adv-x="714.3" />

<glyph glyph-name="attach" unicode="&#xe804;" d="M285 223q-52 0-91 38t-39 92q0 55 38 93l236 236q61 61 147 61t148-61 61-148-61-147l-369-369q-61-61-146-61-86 0-148 61t-61 148 61 147l42 41q0-61 37-110l-5-5q-30-30-30-73t30-74 74-30 74 30q61 61 183 184t184 185q30 30 30 73t-30 74q-31 30-74 30t-73-30l-237-236q-7-8-7-19t7-19 19-7 19 7l184 184q31-31 31-74 0-41-31-72l-110-111q-38-38-93-38z" horiz-adv-x="785" />

<glyph glyph-name="sys-indicator" unicode="&#xe805;" d="M406 178q34 56 214 284t194 220q12-6-96-278t-138-326q-50-86-136-36t-38 136z m94 380q-168 0-284-127t-116-311q0-30 2-46 2-22-12-37t-34-17-36 12-18 34q0 8-1 26t-1 28q0 226 145 382t355 156q72 0 134-18l-70-86q-40 4-64 4z m362-62q138-154 138-376 0-38-2-56-2-20-16-33t-34-13l-4 0q-22 4-35 20t-11 36q2 14 2 46 0 150-80 268 6 14 20 51t22 57z" horiz-adv-x="1000" />

<glyph glyph-name="catalist" unicode="&#xe806;" d="M160 660l0-161-160 0 0 161 160 0z m231 0l0-161-161 0 0 161 161 0z m-231-230l0-162-160 0 0 162 160 0z m231 0l0-162-161 0 0 162 161 0z m-231-230l0-160-160 0 0 160 160 0z m231 0l0-160-161 0 0 160 161 0z m229 460l0-161-161 0 0 161 161 0z m229 0l0-161-160 0 0 161 160 0z m-229-229l0-162-161 0 0 162 161 0z m0-231l0-160-161 0 0 160 161 0z m229 231l0-162-160 0 0 162 160 0z m0-228l0-163-160 0 0 163 160 0z" horiz-adv-x="849" />

<glyph glyph-name="refresh" unicode="&#xe807;" d="M0-150l0 402 402 0-160-160q108-107 258-107 125 0 222 75t130 192l138 0q-35-173-173-288t-317-114q-207 0-353 146z m10 598q35 174 173 288t317 114q207 0 354-146l146 146 0-402-402 0 160 160q-108 107-258 107-125 0-222-75t-130-192l-138 0z" horiz-adv-x="1000" />

<glyph glyph-name="down-cut" unicode="&#xe808;" d="M540 587l-269-473-271 473 540 0z" horiz-adv-x="540" />

<glyph glyph-name="left-cut" unicode="&#xe809;" d="M510 93l-510 256 510 259 0-515z" horiz-adv-x="510" />

<glyph glyph-name="right-cut" unicode="&#xe80a;" d="M0 608l510-257-510-258 0 515z" horiz-adv-x="510" />

<glyph glyph-name="up-cut" unicode="&#xe80b;" d="M0 114l269 473 271-473-540 0z" horiz-adv-x="540" />

<glyph glyph-name="arrow-down" unicode="&#xe80c;" d="M660 366l-330-380-330 380 192 0 0 350 276 0 0-350 192 0z" horiz-adv-x="660" />

<glyph glyph-name="arrow-left" unicode="&#xe80d;" d="M378 20l-378 330 378 330 0-190 352 0 0-278-352 0 0-192z" horiz-adv-x="730" />

<glyph glyph-name="arrow-right" unicode="&#xe80e;" d="M350 680l380-330-380-330 0 192-350 0 0 278 350 0 0 190z" horiz-adv-x="730" />

<glyph glyph-name="arrow-up" unicode="&#xe80f;" d="M660 336l-192 0 0-350-276 0 0 350-192 0 330 380z" horiz-adv-x="660" />

<glyph glyph-name="comment" unicode="&#xe810;" d="M0 96l0 713 1000 0 0-713-473 0-320-205 0 205-207 0z" horiz-adv-x="1000" />

<glyph glyph-name="file-add" unicode="&#xe811;" d="M0-150l0 818 188 182 519 0 0-348-86 0 0 260-369 0 0-156-166 0 0-668 418 0 0-88-504 0z m373 207l0 162 209 0 0 207 160 0 0-207 207 0 0-162-207 0 0-207-160 0 0 207-209 0z" horiz-adv-x="949" />

<glyph glyph-name="file-fla" unicode="&#xe812;" d="M40-100q-4 4 35 94t79 182 38 98-94 45-98 55q-4 12 84 120t180 209 96 97q6-4-74-186t-78-186 95-43 97-57q4-20-174-227t-186-201z" horiz-adv-x="400" />

<glyph glyph-name="file-doc" unicode="&#xe813;" d="M819 638q16-16 27-42t11-50v-642q0-23-15-38t-38-16h-750q-23 0-38 16t-16 38v892q0 23 16 38t38 16h500q22 0 49-11t42-27z m-248 136v-210h210q-5 17-12 23l-175 175q-6 7-23 12z m215-853v572h-232q-23 0-38 16t-16 37v233h-429v-858h715z" horiz-adv-x="857.1" />

<glyph glyph-name="login" unicode="&#xe814;" d="M661 350q0-14-11-25l-303-304q-11-10-26-10t-25 10-10 25v161h-250q-15 0-25 11t-11 25v214q0 15 11 25t25 11h250v161q0 14 10 25t25 10 26-10l303-304q11-10 11-25z m196 196v-392q0-67-47-114t-114-47h-178q-7 0-13 5t-5 13q0 2-1 11t0 15 2 13 5 11 12 3h178q37 0 64 27t26 63v392q0 37-26 64t-64 26h-174t-6 0-6 2-5 3-4 5-1 8q0 2-1 11t0 15 2 13 5 11 12 3h178q67 0 114-47t47-114z" horiz-adv-x="857.1" />

<glyph glyph-name="logout" unicode="&#xe815;" d="M357 46q0-2 1-11t0-14-2-14-5-11-12-3h-178q-67 0-114 47t-47 114v392q0 67 47 114t114 47h178q8 0 13-5t5-13q0-2 1-11t0-15-2-13-5-11-12-3h-178q-37 0-63-26t-27-64v-392q0-37 27-63t63-27h174t6 0 7-2 4-3 4-5 1-8z m518 304q0-14-11-25l-303-304q-11-10-25-10t-25 10-11 25v161h-250q-14 0-25 11t-11 25v214q0 15 11 25t25 11h250v161q0 14 11 25t25 10 25-10l303-304q11-10 11-25z" horiz-adv-x="928.6" />

<glyph glyph-name="p2p" unicode="&#xe816;" d="M799 127q46 0 79-33t33-79-33-79-78-33-79 33-33 80q0 18 8 39l-169 122q-49-50-118-50t-118 49-50 119q0 9 3 26l-134 44q-16-14-36-14-24 0-40 16t-16 40 16 39 40 16q20 0 34-13t19-31l135-45q21 41 61 65t86 24q52 0 96-31l199 199q-16 30-16 55 0 46 33 79t79 33 78-33 33-79-33-78-79-33q-26 0-55 17l-199-200q31-44 31-96 0-37-17-73l169-121q33 26 71 26z" horiz-adv-x="928" />

<glyph glyph-name="listen" unicode="&#xe817;" d="M206 714l534 116 0-704q2-42-30-81t-86-59q-64-24-110-8t-62 64q-18 48 7 97t85 73q52 20 106 10l0 376-354-82 0-490q0-42-32-81t-86-59q-64-22-109-7t-61 63q-18 48 6 97t84 73q54 20 108 10l0 592z" horiz-adv-x="740" />

<glyph glyph-name="watch" unicode="&#xe818;" d="M980 600l-100 0 0-100 100 0 0-100-100 0 0-100 100 0 0-100-100 0 0-100 100 0 0-60q0-16-12-28t-28-12l-900 0q-16 0-28 12t-12 28l0 60 100 0 0 100-100 0 0 100 100 0 0 100-100 0 0 100 100 0 0 100-100 0 0 60q0 18 12 29t28 11l900 0q16 0 28-11t12-29l0-60z m-600-400l250 150-250 150 0-300z" horiz-adv-x="980" />

<glyph glyph-name="io-moderate" unicode="&#xe819;" d="M988-7q0-30-20-50l-60-61q-22-20-51-20-29 0-50 20l-203 204q-21 20-21 50 0 29 24 53l-143 143-70-70q-8-8-19-8t-19 8q1-1 7-7t7-7 6-6 5-8 4-8 3-9 0-10q0-21-15-38-2-1-9-10t-11-11-10-9-13-9-12-5-14-3q-23 0-38 16l-228 228q-16 15-16 38 0 7 3 14t5 12 9 13 9 10 11 11 10 9q17 15 38 15 6 0 10 0t9-3 8-4 8-5 6-6 7-7 7-7q-8 8-8 19t8 19l194 194q8 8 19 8t19-8q-1 1-7 7t-7 7-6 7-5 7-3 8-4 9 0 10q0 21 15 38 2 2 9 10t11 11 10 10 13 8 12 5 14 3q23 0 38-16l228-228q16-15 16-38 0-7-3-14t-5-12-8-13-10-10-11-11-10-9q-17-15-38-15-6 0-10 0t-9 4-8 3-7 5-7 6-7 7-7 7q8-8 8-19t-8-19l-70-70 143-143q24 24 53 24 29 0 51-21l203-202q20-22 20-51z" horiz-adv-x="1000" />

<glyph glyph-name="key" unicode="&#xe81a;" d="M774 612q20-116-28-215t-150-117q-66-12-130-2l-118-194-70-12-104-166q-14-28-46-32l-76-14q-12-4-22 4t-12 22l-16 98q-8 30 12 56l258 386q-24 50-38 120-18 106 53 187t185 101q106 20 195-45t107-177z m-126-76q30 44 21 97t-51 83q-42 32-92 22t-80-54q-8-12-12-23t-1-20 5-16 13-17 18-15 22-16 23-17q6-4 22-16t23-16 19-12 19-8 17 1 18 8 16 19z" horiz-adv-x="780" />

<glyph glyph-name="check-on" unicode="&#xe81b;" d="M786 331v-177q0-67-47-114t-114-47h-464q-67 0-114 47t-47 114v464q0 66 47 113t114 48h464q35 0 65-14 9-4 10-13 2-10-5-16l-27-28q-6-5-13-5-1 0-5 1-13 3-25 3h-464q-37 0-63-26t-27-63v-464q0-37 27-63t63-27h464q37 0 63 27t26 63v141q0 8 5 13l36 35q6 6 13 6 3 0 7-2 11-4 11-16z m129 273l-455-454q-13-14-31-14t-32 14l-240 240q-14 13-14 31t14 32l61 62q14 13 32 13t32-13l147-147 361 361q13 13 31 13t32-13l62-61q13-14 13-32t-13-32z" horiz-adv-x="928.6" />

<glyph glyph-name="calendar" unicode="&#xe81c;" d="M71-79h161v161h-161v-161z m197 0h178v161h-178v-161z m-197 197h161v178h-161v-178z m197 0h178v178h-178v-178z m-197 214h161v161h-161v-161z m411-411h179v161h-179v-161z m-214 411h178v161h-178v-161z m428-411h161v161h-161v-161z m-214 197h179v178h-179v-178z m-196 482v161q0 7-6 12t-12 6h-36q-7 0-12-6t-6-12v-161q0-7 6-13t12-5h36q7 0 12 5t6 13z m410-482h161v178h-161v-178z m-214 214h179v161h-179v-161z m214 0h161v161h-161v-161z m18 268v161q0 7-5 12t-13 6h-35q-7 0-13-6t-5-12v-161q0-7 5-13t13-5h35q8 0 13 5t5 13z m215 36v-715q0-29-22-50t-50-21h-786q-29 0-50 21t-21 50v715q0 29 21 50t50 21h72v54q0 37 26 63t63 26h36q37 0 63-26t26-63v-54h214v54q0 37 27 63t63 26h35q37 0 64-26t26-63v-54h71q29 0 50-21t22-50z" horiz-adv-x="928.6" />

<glyph glyph-name="io-worldnet" unicode="&#xe81d;" d="M827 264q26-14 33-43t-7-55l-35-61q-15-26-44-33t-54 7l-149 85v-171q0-29-21-50t-50-22h-71q-29 0-51 22t-21 50v171l-148-85q-26-15-55-7t-43 33l-36 61q-14 26-7 55t34 43l148 86-148 86q-26 14-34 43t7 55l36 61q15 26 43 33t55-7l148-85v171q0 29 21 50t51 22h71q29 0 50-22t21-50v-171l149 85q26 15 54 7t44-33l35-61q15-26 7-55t-33-43l-148-86z" horiz-adv-x="928.6" />

<glyph glyph-name="sys-distribution" unicode="&#xe81e;" d="M424 256l-296-296q-110 129-110 296t110 295z m44 39l-362 360q157 130 362 142l0-502z m55 390q143-21 238-130t95-256q0-164-115-280t-278-116q-127 0-233 78l293 290 0 414z" horiz-adv-x="873" />

<glyph glyph-name="target" unicode="&#xe81f;" d="M668 279h-61q-14 0-25 10t-11 25v72q0 14 11 25t25 10h61q-18 61-63 106t-105 62v-60q0-15-11-25t-25-11h-71q-15 0-25 11t-11 25v60q-60-17-105-62t-63-106h61q15 0 25-10t11-25v-72q0-14-11-25t-25-10h-61q18-61 63-106t105-62v60q0 15 11 26t25 10h71q15 0 25-10t11-26v-60q60 18 105 62t63 106z m189 107v-72q0-14-10-25t-26-10h-79q-21-90-87-156t-155-86v-80q0-14-11-25t-25-11h-71q-15 0-25 11t-11 25v80q-90 21-155 86t-86 156h-80q-15 0-25 10t-11 25v72q0 14 11 25t25 10h80q20 90 86 156t155 86v80q0 14 11 25t25 11h71q15 0 25-11t11-25v-80q90-21 155-86t87-156h79q15 0 26-10t10-25z" horiz-adv-x="857.1" />

<glyph glyph-name="night" unicode="&#xe820;" d="M524 238q106 106 125 252t-53 270q52-26 96-72 128-128 128-309t-128-309-310-128-310 128q-40 40-72 94 124-70 271-51t253 125z" horiz-adv-x="820" />

<glyph glyph-name="deny" unicode="&#xe821;" d="M1000 349q0-136-67-251t-182-182-251-67-251 67-182 182-67 251 67 251 182 182 251 67 251-67 182-182 67-251z m-117 0q0 158-112 271t-271 112q-126 0-226-74l535-535q74 100 74 226z m-157-309l-535 535q-74-100-74-226 0-158 113-270t270-113q126 0 226 74z" horiz-adv-x="1000" />

<glyph glyph-name="announce" unicode="&#xe822;" d="M0 344l0 123q2 35 26 60t58 24l270 0q138 8 272 65t229 152q36-2 59-26t23-58l0-199q28-8 45-30t18-50q-2-30-19-51t-44-27l0-201q-1-36-26-59t-56-24q-207 184-449 211-66-33-53-127t77-142q-28-47-96-52t-105 30q-16 45-25 76t-16 71-7 78 10 72l-107 0q-35 2-60 27t-24 57z m438-10q240-44 419-183l0 508q-203-151-419-182l0-143z" horiz-adv-x="1000" />

<glyph glyph-name="download" unicode="&#xe823;" d="M968 198q18-10 27-32t3-40l-28-154q-4-20-22-33t-40-13l-816 0q-22 0-40 13t-22 33l-28 154q-10 48 32 72l158 108 98 0-170-130 178 0q8 0 12-8l40-110 300 0 40 110q8 8 12 8l178 0-170 130 98 0z m-208 322l-260-244-260 244 166 0 0 256 190 0 0-256 164 0z" horiz-adv-x="1000" />

<glyph glyph-name="network" unicode="&#xe824;" d="M224 504q-22 0-42-10-48 52-92 128 54 74 128 118 92-38 152-82-6-16-6-32 0-6 4-22-62-48-116-104-16 4-28 4z m-98-98q0-34 20-60-60-114-80-232-66 106-66 236 0 110 50 206 38-62 84-112-8-24-8-38z m336 318q-28 0-50-14-58 42-114 70 84 30 162 30 120 0 230-62-76-14-162-50-26 26-66 26z m146-460q-160 24-290 112 4 20 4 30 0 24-14 52 38 44 98 90 26-20 56-20 14 0 38 8 94-108 134-240-16-14-26-32z m128-132q38 14 54 60 58 4 108 18-46-146-166-232 6 48 6 98 0 10-1 28t-1 28z m-150 66q-190-96-304-272-90 36-158 110 12 144 80 274 6-2 20-2 30 0 52 14 142-98 310-124z m184 492q150-136 150-340 0-22-4-66-64-18-130-24-24 56-88 60-48 146-148 264 10 20 10 42l0 10q100 42 210 54z m-136-544q14-10 32-18 2-18 2-52 0-80-14-144-86-42-194-42-58 0-112 12 110 160 286 244z" horiz-adv-x="920" />

<glyph glyph-name="reply" unicode="&#xe825;" d="M900 10q-86 152-208 197t-330 45l0-218-362 334 362 322 0-192q90 0 168-27t131-70 96-95 69-104 44-95 24-69z" horiz-adv-x="900" />

<glyph glyph-name="reply-all" unicode="&#xe826;" d="M362 556l-212-188 212-196 0-138-362 334 362 322 0-134z m250-58q104 0 182-50t115-122 60-144 27-122l4-50q-86 154-168 198t-220 44l0-218-362 334 362 322 0-192z" horiz-adv-x="1000" />

<glyph glyph-name="forward" unicode="&#xe827;" d="M540 252q-210 0-332-45t-208-197q4 20 13 53t50 117 96 148 156 117 225 53l0 192 360-322-360-334 0 218z" horiz-adv-x="900" />

<glyph glyph-name="globe" unicode="&#xe828;" d="M480 830q200 0 340-141t140-339q0-200-140-340t-340-140q-198 0-339 140t-141 340q0 198 141 339t339 141z m410-480q0 132-78 239t-202 149q-18-24-16-32 4-38 18-51t30-7l32 12t20 2q22-24 0-47t-45-56-1-77q34-64 96-64 28-2 43-36t17-66q10-80-14-140-22-44 14-76 86 112 86 250z m-466 404q-112-14-199-84t-127-174q6 0 22-2t28-3 26-4 24-8 12-13q4-12-14-45t-18-61q0-30 38-56t38-46q0-28 8-68t8-44q0-12 36-54t52-42q10 0 11 22t-2 54-3 40q0 32 14 74 12 42 59 70t55 46q16 34 9 61t-17 43-34 28-41 17-37 9-22 4q-16 6-42 7t-36-3-27 11-17 29q0 10 15 27t35 37 28 30q8 14 17 21t22 16 27 21q4 4 25 17t27 23z m-72-794q66-20 128-20 128 0 226 68-26 44-118 34-24-2-65-17t-47-17q-74-16-76-16-12-2-26-14t-22-18z" horiz-adv-x="960" />

<glyph glyph-name="infinity" unicode="&#xe829;" d="M796 570q84 0 144-53t60-167q0-112-60-166t-144-54q-78 0-157 40t-139 106q-58-66-137-106t-157-40q-86 0-146 54t-60 166q0 114 60 167t146 53q78 0 157-39t137-105q58 66 138 105t158 39z m-590-352q60 0 127 37t113 95q-46 58-112 95t-128 37q-114 0-114-132t114-132z m590 0q114 0 114 132t-114 132q-62 0-129-37t-111-95q44-58 111-95t129-37z" horiz-adv-x="1000" />

<glyph glyph-name="ok" unicode="&#xe82a;" d="M375 155l441 442 59-59-500-500-232 233 58 58z" horiz-adv-x="1000" />

<glyph glyph-name="cancel" unicode="&#xe82b;" d="M791 562l-232-233 232-232-59-59-232 233-232-233-59 59 232 232-232 233 59 58 232-232 232 232z" horiz-adv-x="1000" />

<glyph glyph-name="up" unicode="&#xe82c;" d="M309 187l-59 58 250 250 250-250-59-58-191 191z" horiz-adv-x="1000" />

<glyph glyph-name="down" unicode="&#xe82d;" d="M309 503l191-191 191 191 59-59-250-250-250 250z" horiz-adv-x="1000" />

<glyph glyph-name="add" unicode="&#xe82e;" d="M791 288h-250v-250h-82v250h-250v82h250v250h82v-250h250v-82z" horiz-adv-x="1000" />

<glyph glyph-name="remove" unicode="&#xe82f;" d="M791 288h-582v82h582v-82z" horiz-adv-x="1000" />

<glyph glyph-name="person" unicode="&#xe830;" d="M500 245c111 0 334-54 334-166v-84h-668v84c0 112 223 166 334 166z m0 84c-92 0-166 74-166 166s74 168 166 168 166-76 166-168-74-166-166-166z" horiz-adv-x="1000" />

<glyph glyph-name="menu" unicode="&#xe831;" d="M125 579h750v-84h-750v84z m0-291v82h750v-82h-750z m0-209v84h750v-84h-750z" horiz-adv-x="1000" />

<glyph glyph-name="sys-database" unicode="&#xe832;" d="M686 208q14 20 14-2l0-100q0-74-104-135t-246-61q-140 0-245 61t-105 135l0 100q0 8 4 10t10-8q32-52 125-86t211-34 211 34 125 86z m2 254q8 16 12 0l0-116q0-68-102-114t-248-46q-144 0-247 46t-103 114l0 116q0 20 14 0 30-46 124-75t212-29 212 29 126 75z m-338 328q144 0 247-39t103-93l0-64q0-58-103-99t-247-41-247 41-103 99l0 64q0 54 103 93t247 39z" horiz-adv-x="700" />

<glyph glyph-name="sys-backup" unicode="&#xe833;" d="M460 810q190 0 325-135t135-325-135-325-325-135-325 135-135 325 135 325 325 135z m0-820q150 0 255 106t105 254q0 150-105 255t-255 105q-148 0-254-105t-106-255q0-148 106-254t254-106z m36 620l0-244 150-150-50-50-170 170 0 274 70 0z" horiz-adv-x="920" />

<glyph glyph-name="sys-power" unicode="&#xe834;" d="M339 75q95 0 164 69t70 166q0 97-69 166-15 15-15 36t15 36 37 15 37-15q100-100 100-238 0-140-100-240-99-99-239-99-141 0-240 99t-99 240q0 140 99 238 15 15 37 15t37-15 15-36-15-36q-69-69-69-166 0-97 69-166t166-69z m0 291q-21 0-37 15t-16 36l0 261q0 22 16 37t37 15 36-15 15-37l0-261q0-21-15-36t-36-15z" horiz-adv-x="678" />

<glyph glyph-name="edit-page" unicode="&#xe835;" d="M90 589l0-593 444 0 0 262 90 101 0-453-624 0 0 760 541 0-75-77-376 0z m749 180c35-34 32-88-3-124l-57-56 17 75-63 64-74-17 56 57c35 35 90 35 124 1z m-219-99c0 3 65 20 75 23l1 1 67-69c-4 0-23-75-23-75l-371-384-159-36-2 1 41 158z m-247-422l-45 46-35-6-23-22-10-40 46-45 39 9 23 23z" horiz-adv-x="864" />

<glyph glyph-name="edit" unicode="&#xe836;" d="M718 680q32-32 47-64t15-48l0-16-252-252-290-288-238-52 50 240 290 288 252 252q54 12 126-60z m-494-640l24 24q-2 44-52 94-22 22-45 35t-35 13l-14 2-22-24-18-80q28-16 46-34 24-24 36-48z" horiz-adv-x="780" />

<glyph glyph-name="info" unicode="&#xe88f;" d="M459 454v84h82v-84z m41-484c198 0 359 162 359 359s-161 360-359 360c-198 0-359-162-359-360s161-359 359-359z m0 775c231 0 416-185 416-416s-185-416-416-416c-230 0-416 186-416 416s186 416 416 416z m-41-625v250h82v-250z" horiz-adv-x="1000" />

<glyph glyph-name="search" unicode="&#xe8b6;" d="M397 245c103 0 187 84 187 188s-84 187-187 187-188-84-188-187 84-188 188-188z m250 0l207-207-63-62-207 207v33l-12 12c-47-41-109-65-175-65-151 0-272 119-272 270s121 271 272 271 269-121 269-271c0-67-23-129-64-176l11-12h34z" horiz-adv-x="1000" />

<glyph glyph-name="settings" unicode="&#xe8b8;" d="M500 183c80 0 147 66 147 146s-67 147-147 147-146-67-146-147 66-146 146-146z m311 105l87-68c8-6 10-18 4-28l-84-144c-5-10-15-12-25-8l-103 41c-22-15-45-31-71-41l-15-109c-2-10-10-18-20-18h-168c-10 0-18 8-19 18l-16 109c-25 10-49 24-70 41l-104-41c-10-4-19-2-25 8l-84 144c-6 10-4 22 4 28l88 68c-2 14-2 28-2 41s0 28 2 41l-88 69c-8 5-10 17-4 27l84 144c6 10 15 12 25 8l104-41c21 16 45 32 70 41l16 110c1 9 9 17 19 17h168c10 0 18-8 20-17l15-110c26-9 49-23 71-41l103 41c10 4 20 2 25-8l84-144c6-10 4-22-4-27l-87-69c2-13 2-27 2-41s0-27-2-41z" horiz-adv-x="1000" />

<glyph glyph-name="sage" unicode="&#xe8d7;" d="M875 683c45 0 84-37 84-82v-584c0-45-39-84-84-84h-750c-45 0-84 39-84 84v584c0 45 39 82 84 82h250v-82h-250v-584h750v584h-250v82h250z m-375-541l-166 166h125v375h82v-375h125z" horiz-adv-x="1000" />

<glyph glyph-name="visible" unicode="&#xe8f4;" d="M500 454c68 0 125-56 125-125s-57-125-125-125-125 57-125 125 57 125 125 125z m0-334c115 0 209 94 209 209s-94 209-209 209-209-94-209-209 94-209 209-209z m0 522c209 0 387-129 459-313-72-183-250-312-459-312s-387 129-459 312c72 184 250 313 459 313z" horiz-adv-x="1000" />

<glyph glyph-name="invisible" unicode="&#xe8f5;" d="M494 454h6c68 0 125-56 125-125v-8z m-179-33c-14-27-24-59-24-92 0-115 94-209 209-209 33 0 65 10 92 24l-65 64c-7-2-17-4-27-4-68 0-125 57-125 125 0 10 2 20 4 28z m-231 230l53 53 738-738-53-53c-47 46-94 92-140 139-57-24-117-35-182-35-209 0-387 129-459 312 33 82 88 153 156 207-38 38-75 77-113 115z m416-113c-27 0-53-6-76-15l-90 89c51 20 107 30 166 30 209 0 385-129 457-313-31-78-80-144-142-197l-122 121c10 23 16 49 16 76 0 115-94 209-209 209z" horiz-adv-x="1000" />

<glyph glyph-name="hex-check" unicode="&#xe900;" d="M500 788l-375-219v-438l375-219 375 219v438l-375 219z m0-144l250-150v-288l-250-150-250 150v288l250 150z m0-75l-187-110v-218l187-110 188 110v218l-188 110z" horiz-adv-x="1000" />

<glyph glyph-name="hex-logo" unicode="&#xe901;" d="M500 788l-375-219v-438l375-219 375 219v438l-375 219z m0-144l72-44-252-436-70 42v288l250 150z m180-108l70-42v-288l-250-150-72 44 252 436z" horiz-adv-x="1000" />

<glyph glyph-name="hex" unicode="&#xe902;" d="M500 788l-375-219v-438l375-219 375 219 0 438z m0-144l250-150v-288l-250-150-250 150v288z" horiz-adv-x="1000" />

<glyph glyph-name="menu-vert" unicode="&#xe903;" d="M750 725v-750h-84v750z m-291 0h82v-750h-82z m-209 0h84v-750h-84z" horiz-adv-x="1000" />

<glyph glyph-name="hakase" unicode="&#xf020;" d="M0 350q0 95 37 182t100 149 150 100 182 37 182-37 149-100 100-149 37-182-37-182-100-150-149-100-182-37-182 37-150 100-100 150-37 182z m397-226q0-46 32-79t79-32q3 0 11-1 81 12 148 60t105 120 39 158q0 90-44 167t-118 123-164 51q60-95 60-209 0-81-31-153t-85-128q-32-33-32-77z" horiz-adv-x="937.5" />

<glyph glyph-name="spell-locked" unicode="&#xf023;" d="M179 413h285v107c0 78-64 143-143 143s-142-65-142-143v-107z m464-54v-321c0-30-24-54-54-54h-535c-30 0-54 24-54 54v321c0 30 24 54 54 54h17v107c0 137 113 250 250 250s250-113 250-250v-107h18c30 0 54-24 54-54z" horiz-adv-x="642.6" />

<glyph glyph-name="spell-pinned" unicode="&#xf08d;" d="M643 163c0-20-16-36-36-36h-239l-29-270c-1-9-8-16-17-16h-1c-8 0-16 6-17 15l-43 271h-225c-20 0-36 16-36 36 0 91 69 178 143 178v286c-39 0-72 32-72 71s33 72 72 72h357c39 0 71-33 71-72s-32-71-71-71v-286c74 0 143-87 143-178z" horiz-adv-x="642.6" />

<glyph glyph-name="check" unicode="&#xf096;" d="M625 707h-464q-37 0-63-26t-27-63v-464q0-37 27-63t63-27h464q37 0 63 27t26 63v464q0 37-26 63t-63 26z m161-89v-464q0-67-47-114t-114-47h-464q-67 0-114 47t-47 114v464q0 66 47 113t114 48h464q66 0 114-48t47-113z" horiz-adv-x="785.7" />

<glyph glyph-name="fav-no" unicode="&#xf097;" d="M643 707h-572v-693l237 227 49 47 50-47 236-227v693z m7 72q12 0 24-5 19-8 29-23t11-35v-719q0-19-11-35t-29-23q-10-4-24-4-27 0-47 18l-246 236-246-236q-20-19-46-19-13 0-25 5-18 7-29 23t-11 35v719q0 19 11 35t29 23q12 5 25 5h585z" horiz-adv-x="714.3" />

<glyph glyph-name="spell-divide" unicode="&#xf0c5;" d="M946 636q23 0 38-16t16-38v-678q0-23-16-38t-38-16h-535q-23 0-38 16t-16 38v160h-303q-23 0-38 16t-16 38v375q0 22 11 49t27 42l228 228q15 16 42 27t49 11h232q23 0 38-16t16-38v-183q38 23 71 23h232z m-303-119l-167-167h167v167z m-357 214l-167-167h167v167z m109-361l176 176v233h-214v-233q0-22-15-37t-38-16h-233v-357h286v143q0 22 11 49t27 42z m534-449v643h-215v-232q0-22-15-38t-38-15h-232v-358h500z" horiz-adv-x="1000" />

<glyph glyph-name="sort" unicode="&#xf0dc;" d="M571 243q0-15-10-25l-250-250q-11-11-25-11t-25 11l-250 250q-11 10-11 25t11 25 25 11h500q14 0 25-11t10-25z m0 214q0-14-10-25t-25-11h-500q-15 0-25 11t-11 25 11 25l250 250q10 11 25 11t25-11l250-250q10-10 10-25z" horiz-adv-x="571.4" />

<glyph glyph-name="sort-down" unicode="&#xf0dd;" d="M571 243q0-15-10-25l-250-250q-11-11-25-11t-25 11l-250 250q-11 10-11 25t11 25 25 11h500q14 0 25-11t10-25z" horiz-adv-x="571.4" />

<glyph glyph-name="sort-up" unicode="&#xf0de;" d="M571 457q0-14-10-25t-25-11h-500q-15 0-25 11t-11 25 11 25l250 250q10 11 25 11t25-11l250-250q10-10 10-25z" horiz-adv-x="571.4" />

<glyph glyph-name="file-txt" unicode="&#xf0f6;" d="M819 638q16-16 27-42t11-50v-642q0-23-15-38t-38-16h-750q-23 0-38 16t-16 38v892q0 23 16 38t38 16h500q22 0 49-11t42-27z m-248 136v-210h210q-5 17-12 23l-175 175q-6 7-23 12z m215-853v572h-232q-23 0-38 16t-16 37v233h-429v-858h715z m-572 483q0 7 5 12t13 5h393q8 0 13-5t5-12v-36q0-8-5-13t-13-5h-393q-8 0-13 5t-5 13v36z m411-125q8 0 13-5t5-13v-36q0-8-5-13t-13-5h-393q-8 0-13 5t-5 13v36q0 8 5 13t13 5h393z m0-143q8 0 13-5t5-13v-36q0-8-5-13t-13-5h-393q-8 0-13 5t-5 13v36q0 8 5 13t13 5h393z" horiz-adv-x="857.1" />

<glyph glyph-name="left" unicode="&#xf104;" d="M350 538c0-5-2-10-6-13l-219-220 219-219c4-3 6-8 6-13s-2-9-6-13l-28-27c-3-4-8-6-12-6s-10 2-13 6l-260 260c-4 3-6 8-6 12s2 10 6 13l260 260c3 4 8 6 13 6s9-2 12-6l28-28c4-3 6-7 6-12z" horiz-adv-x="375" />

<glyph glyph-name="right" unicode="&#xf105;" d="M332 305c0-4-2-9-5-12l-261-260c-3-4-8-6-12-6s-10 2-13 6l-28 27c-3 4-6 8-6 13 0 5 3 10 6 13l219 219-219 220c-3 3-6 8-6 13s3 9 6 12l28 28c3 4 8 6 13 6s9-2 12-6l261-260c3-3 5-8 5-13z" horiz-adv-x="338.9" />

<glyph glyph-name="io-commands" unicode="&#xf120;" d="M327 302l-261-261q-5-5-12-5t-13 5l-28 28q-6 6-6 13t6 13l219 219-219 220q-6 5-6 12t6 13l28 28q5 6 13 6t12-6l261-260q5-5 5-13t-5-12z m602-256v-35q0-8-5-13t-13-5h-536q-8 0-13 5t-5 13v35q0 8 5 13t13 5h536q8 0 13-5t5-13z" horiz-adv-x="928.6" />

<glyph glyph-name="io-assemble" unicode="&#xf12e;" d="M929 237q0-45-25-75t-69-30q-23 0-43 10t-33 21-32 21-39 10q-62 0-62-69 0-22 9-65t8-64v-3q-12 0-18 0-19-2-54-7t-65-7-54-3q-35 0-58 15t-23 47q0 20 9 39t22 32 21 33 10 43q0 44-31 69t-75 25q-47 0-80-26t-33-71q0-24 9-46t18-36 19-30 8-28q0-25-25-50-21-19-65-19-54 0-137 13-5 1-16 2t-15 3l-7 1q-1 0-2 0-1 0-1 1v571q1 0 10-2t19-2 12-2q83-14 137-14 44 0 65 20 25 24 25 49 0 13-8 29t-19 29-18 36-9 47q0 45 33 71t81 25q44 0 74-25t31-69q0-23-10-43t-21-33-22-31-9-40q0-32 23-47t58-14q35 0 100 8t91 9v-1q-1-1-2-9t-3-19-2-12q-13-84-13-137 0-45 19-65 25-26 50-26 12 0 28 8t30 19 36 19 46 8q46 0 71-33t26-80z" horiz-adv-x="928.6" />

<glyph glyph-name="io-firewall" unicode="&#xf132;" d="M607 314v357h-250v-634q67 35 119 76 131 103 131 201z m107 429v-429q0-48-18-95t-47-84-66-71-70-57-68-43-50-28-23-11q-7-4-15-4t-14 4q-9 4-24 11t-50 28-67 43-71 57-66 71-46 84-19 95v429q0 14 11 25t25 11h643q14 0 25-11t10-25z" horiz-adv-x="714.3" />

<glyph glyph-name="check-in" unicode="&#xf14a;" d="M382 125l343 343q11 10 11 25t-11 25l-57 57q-11 11-25 11t-25-11l-261-261-118 118q-10 11-25 11t-25-11l-57-57q-10-10-10-25t10-25l200-200q11-10 25-10t25 10z m475 493v-536q0-66-47-113t-114-48h-535q-67 0-114 48t-47 113v536q0 66 47 113t114 48h535q67 0 114-48t47-113z" horiz-adv-x="857.1" />

<glyph glyph-name="coin" unicode="&#xf15a;" d="M651 493q10-102-73-144 65-16 98-58t25-119q-4-40-18-70t-36-49-54-33-68-19-81-9v-142h-86v140q-45 0-68 1v-141h-86v142q-10 0-30 1t-31 0h-112l18 102h62q27 0 32 28v225h9q-4 0-9 0v161q-7 37-50 37h-62v92l119-1q35 0 54 1v141h86v-138q45 1 68 1v137h86v-141q44-4 78-13t63-25 46-43 20-64z m-120-304q0 20-8 35t-21 26-32 17-36 11-42 5-38 1-36 0-27-1v-189q5 0 21 0t27 0 29 1 33 2 32 5 31 8 26 11 22 17 14 22 5 29z m-39 265q0 19-7 33t-17 23-27 16-31 9-34 5-32 1-31 0-22-1v-171q3 0 20 0t26 0 27 1 31 3 29 6 27 10 21 15 15 22 5 28z" horiz-adv-x="714.3" />

<glyph glyph-name="file-doc-inv" unicode="&#xf15b;" d="M571 564v264q13-8 21-16l227-228q8-7 16-20h-264z m-71-18q0-22 16-37t38-16h303v-589q0-23-15-38t-38-16h-750q-23 0-38 16t-16 38v892q0 23 16 38t38 16h446v-304z" horiz-adv-x="857.1" />

<glyph glyph-name="file-img" unicode="&#xf1c5;" d="M819 638q16-16 27-42t11-50v-642q0-23-15-38t-38-16h-750q-23 0-38 16t-16 38v892q0 23 16 38t38 16h500q22 0 49-11t42-27z m-248 136v-210h210q-5 17-12 23l-175 175q-6 7-23 12z m215-853v572h-232q-23 0-38 16t-16 37v233h-429v-858h715z m-72 250v-178h-571v107l107 107 71-71 215 214z m-464 108q-45 0-76 31t-31 76 31 76 76 31 76-31 31-76-31-76-76-31z" horiz-adv-x="857.1" />

<glyph glyph-name="file-arc" unicode="&#xf1c6;" d="M357 636v71h-71v-71h71z m72-72v72h-72v-72h72z m-72-71v71h-71v-71h71z m72-72v72h-72v-72h72z m390 217q16-16 27-42t11-50v-642q0-23-15-38t-38-16h-750q-23 0-38 16t-16 38v892q0 23 16 38t38 16h500q22 0 49-11t42-27z m-248 136v-210h210q-5 17-12 23l-175 175q-6 7-23 12z m215-853v572h-232q-23 0-38 16t-16 37v233h-71v-72h-72v72h-286v-858h715z m-350 403l60-195q4-15 4-29 0-46-40-77t-103-30-102 30-41 77q0 14 5 29 12 35 67 221v71h71v-71h44q13 0 22-7t13-19z m-79-260q30 0 51 11t21 25-21 25-51 11-50-11-21-25 21-25 50-11z" horiz-adv-x="857.1" />

<glyph glyph-name="file-aud" unicode="&#xf1c7;" d="M819 638q16-16 27-42t11-50v-642q0-23-15-38t-38-16h-750q-23 0-38 16t-16 38v892q0 23 16 38t38 16h500q22 0 49-11t42-27z m-248 136v-210h210q-5 17-12 23l-175 175q-6 7-23 12z m215-853v572h-232q-23 0-38 16t-16 37v233h-429v-858h715z m-440 455q11-5 11-17v-304q0-12-11-16-4-1-7-1-6 0-12 5l-93 93h-73q-8 0-13 5t-5 13v107q0 8 5 13t13 5h73l93 93q8 8 19 4z m233-385q17 0 28 14 72 88 72 202t-72 203q-9 11-24 13t-27-8q-11-9-13-24t8-26q56-69 56-158t-56-157q-9-12-8-27t13-23q10-9 23-9z m-118 83q15 0 26 11 49 52 49 122t-49 122q-10 11-25 12t-26-10-11-25 10-26q29-32 29-73t-29-73q-10-11-10-26t11-25q12-9 25-9z" horiz-adv-x="857.1" />

<glyph glyph-name="file-vid" unicode="&#xf1c8;" d="M819 638q16-16 27-42t11-50v-642q0-23-15-38t-38-16h-750q-23 0-38 16t-16 38v892q0 23 16 38t38 16h500q22 0 49-11t42-27z m-248 136v-210h210q-5 17-12 23l-175 175q-6 7-23 12z m215-853v572h-232q-23 0-38 16t-16 37v233h-429v-858h715z m-357 500q29 0 50-21t21-50v-214q0-29-21-50t-50-22h-215q-29 0-50 22t-21 50v214q0 29 21 50t50 21h215z m274-1q11-4 11-16v-322q0-12-11-17-4-1-7-1-7 0-12 5l-148 149v50l148 148q5 5 12 5 3 0 7-1z" horiz-adv-x="857.1" />

<glyph glyph-name="file-cod" unicode="&#xf1c9;" d="M819 638q16-16 27-42t11-50v-642q0-23-15-38t-38-16h-750q-23 0-38 16t-16 38v892q0 23 16 38t38 16h500q22 0 49-11t42-27z m-248 136v-210h210q-5 17-12 23l-175 175q-6 7-23 12z m215-853v572h-232q-23 0-38 16t-16 37v233h-429v-858h715z m-518 500q4 7 12 7t13-3l28-21q7-5 7-12t-3-13l-102-136 102-136q4-6 3-13t-7-12l-28-21q-6-4-13-4t-12 7l-126 168q-8 11 0 22z m447-167q8-11 0-22l-126-168q-4-6-11-7t-14 4l-28 21q-6 5-7 12t3 13l102 136-102 136q-4 6-3 13t7 12l28 21q6 4 14 3t11-7z m-346-258q-7 1-11 8t-3 13l77 464q1 7 7 11t14 3l35-5q7-2 11-8t3-13l-77-464q-1-7-7-11t-13-3z" horiz-adv-x="857.1" />

<glyph glyph-name="help" unicode="&#xf1cd;" d="M500 850q102 0 194-40t160-106 106-160 40-194-40-194-106-160-160-106-194-40-194 40-160 106-106 160-40 194 40 194 106 160 160 106 194 40z m0-71q-106 0-201-51l108-108q46 16 93 16t93-16l109 108q-96 51-202 51z m-378-630l108 108q-16 46-16 93t16 93l-108 109q-51-96-51-202t51-201z m378-228q106 0 202 51l-109 108q-46-16-93-16t-93 16l-108-108q95-51 201-51z m0 215q89 0 152 63t62 151-62 152-152 62-151-62-63-152 63-151 151-63z m270 121l108-108q51 95 51 201t-51 202l-108-109q16-46 16-93t-16-93z" horiz-adv-x="1000" />

<glyph glyph-name="news" unicode="&#xf1ea;" d="M571 564h-214v-214h214v214z m72-357v-71h-357v71h357z m0 429v-357h-357v357h357z m357-429v-71h-286v71h286z m0 143v-71h-286v71h286z m0 143v-72h-286v72h286z m0 143v-72h-286v72h286z m-857-536v536h-72v-536q0-14 11-25t25-11 25 11 11 25z m928 0v607h-857v-607q0-18-6-36h828q14 0 25 11t10 25z m72 679v-679q0-45-31-76t-76-31h-929q-44 0-76 31t-31 76v607h143v72h1000z" horiz-adv-x="1142.9" />

<glyph glyph-name="sys-cleanup" unicode="&#xf1f8;" d="M286 82v393q0 8-5 13t-13 5h-36q-8 0-13-5t-5-13v-393q0-8 5-13t13-5h36q8 0 13 5t5 13z m143 0v393q0 8-5 13t-13 5h-36q-8 0-13-5t-5-13v-393q0-8 5-13t13-5h36q8 0 13 5t5 13z m142 0v393q0 8-5 13t-12 5h-36q-8 0-13-5t-5-13v-393q0-8 5-13t13-5h36q7 0 12 5t5 13z m-303 554h250l-27 65q-4 5-9 6h-177q-6-1-10-6z m518-18v-36q0-8-5-13t-13-5h-54v-529q0-46-26-80t-63-34h-464q-37 0-63 33t-27 79v531h-53q-8 0-13 5t-5 13v36q0 8 5 13t13 5h172l39 93q9 21 31 35t44 15h178q23 0 44-15t30-35l39-93h173q8 0 13-5t5-13z" horiz-adv-x="785.7" />

<glyph glyph-name="off" unicode="&#xf204;" d="M643 350q0 58-23 111t-61 91-91 61-111 23-111-23-91-61-61-91-23-111 23-111 61-91 91-61 111-23 111 23 91 61 61 91 23 111z m428 0q0 58-22 111t-61 91-91 61-111 23h-216q67-50 106-125t38-161-38-161-106-125h216q58 0 111 23t91 61 61 91 22 111z m72 0q0-72-29-139t-76-113-114-77-138-28h-429q-72 0-138 28t-114 77-76 113-29 139 29 139 76 114 114 76 138 28h429q72 0 138-28t114-76 76-114 29-139z" horiz-adv-x="1142.9" />

<glyph glyph-name="on" unicode="&#xf205;" d="M0 350q0 73 29 139t76 114 114 76 138 28h429q72 0 138-28t114-76 76-114 29-139-29-139-76-113-114-77-138-28h-429q-72 0-138 28t-114 77-76 113-29 139z m786-286q58 0 111 23t91 61 61 91 22 111-22 111-61 91-91 61-111 23-111-23-91-61-61-91-23-111 23-111 61-91 91-61 111-23z" horiz-adv-x="1142.9" />
</font>
</defs>
</svg>